^C:\USERS\JAVAJUMPER\SOURCE\REPOS\LAB14\TASK3\TASK3.CPP
C:\USERS\JAVAJUMPER\SOURCE\REPOS\LAB14\TASK3\X64\DEBUG\VC143.PDB
C:\USERS\JAVAJUMPER\SOURCE\REPOS\LAB14\TASK3\X64\DEBUG\VC143.IDB
C:\USERS\JAVAJUMPER\SOURCE\REPOS\LAB14\TASK3\X64\DEBUG\TASK3.OBJ
