^C:\USERS\JAVAJUMPER\SOURCE\REPOS\LAB14\TASK4\X64\DEBUG\TASK4.OBJ
C:\USERS\JAVAJUMPER\SOURCE\REPOS\LAB14\X64\DEBUG\TASK4.EXE
C:\USERS\JAVAJUMPER\SOURCE\REPOS\LAB14\TASK4\X64\DEBUG\TASK4.ILK
C:\USERS\JAVAJUMPER\SOURCE\REPOS\LAB14\X64\DEBUG\TASK4.PDB
